"1","Languages/Frameworks","HTML","primary","https://www.w3schools.com/html/"
"2","Languages/Frameworks","CSS","primary","https://www.w3schools.com/css/"
"3","Languages/Frameworks","Javascript","primary","https://www.w3schools.com/js/"
"4","Languages/Frameworks","SQL","primary","https://www.w3schools.com/sql/"
"5","Languages/Frameworks","PHP","primary","https://www.w3schools.com/php/"
"6","Languages/Frameworks","Bootstrap 4","primary","https://www.w3schools.com/bootstrap4/"
"7","Languages/Frameworks","Java","primary","https://en.wikipedia.org/wiki/Java_(programming_language)"
"8","Languages/Frameworks","C# (Unity)","primary","https://docs.microsoft.com/en-us/dotnet/csharp/"
"9","Software","Blender","primary","https://www.blender.org/"
"10","Software","Gimp","primary","https://www.gimp.org/"
"11","Software","Unity","primary","https://unity3d.com/"
"12","Software","VSCode","primary","https://code.visualstudio.com/"
"13","Software","FileZilla","primary","https://filezilla-project.org/"
"14","Software","Eclipse","primary","https://www.eclipse.org/"
"15","Software","Alice","primary","https://www.alice.org/"
"16","Software","Cinema4D","secondary","https://www.maxon.net/en/products/cinema-4d/overview/"
"17","Software","IntelliJ","secondary","https://www.jetbrains.com/idea/"
"18","Software","Logic Pro X","primary","https://www.apple.com/logic-pro/"
"20","General","Dance","primary","https://en.wikipedia.org/wiki/Breakdancing"
"21","General","Web Dev","primary","https://en.wikipedia.org/wiki/Web_development"
"22","General","Game Dev","primary","https://en.wikipedia.org/wiki/Video_game_development"
"23","Languages/Frameworks","Python","primary","https://www.python.org/"
"24","Software","Processing","primary","https://processing.org/"
"19","Software","Adobe Illustrator","secondary","https://www.adobe.com/products/illustrator.html"
"25","Languages/Frameworks","Heroku","primary","https://www.heroku.com/"
"26","Languages/Frameworks","Git","primary","https://git-scm.com/"
"27","Software","GitHub","primary","https://github.com/"
"28","Software","Vectorworks","Primary","http://www.vectorworks.net/"
"29","Software","Gravit","primary","https://www.designer.io/"
